<svg xmlns="http://www.w3.org/2000/svg" width="26" height="24" viewBox="0 0 26 24">
  <g fill="none" fill-rule="evenodd" stroke="#82869E" stroke-linecap="round" stroke-linejoin="round" stroke-width="1.6" transform="translate(1 1)">
    <polyline points="19.2 5.704 24 5.704 24 17.926 20.8 17.926 20.8 22 15.2 17.926 10.4 17.926"></polyline>
    <polygon points="19.2 0 0 0 0 13.852 4 13.852 4 19.556 10.4 13.852 19.2 13.852"></polygon>
  </g>
</svg>
