<svg xmlns="http://www.w3.org/2000/svg" width="24" height="22" viewBox="0 0 24 22">
  <path id="fillActive" fill="#82869E" d="M24,9.86206897 C24,4.33172414 18.729,0 12,0 C5.271,0 0,4.33172414 0,9.86206897 C0,15.4136552 5.3835,19.9304828 12,19.9304828 C13.03425,19.9304828 14.073,19.8151724 15.09075,19.5875862 L20.7135,21.9423448 C20.80575,21.9810345 20.90325,22 21,22 C21.15525,22 21.30975,21.9514483 21.43875,21.8566207 C21.6495,21.7026207 21.7665,21.4492414 21.74775,21.1867586 L21.384,16.1373793 C23.07375,14.3584138 24,12.1432414 24,9.86206897 Z M13.5,12.8965517 L6,12.8965517 L6,11.3793103 L13.5,11.3793103 L13.5,12.8965517 Z M18,8.34482759 L6,8.34482759 L6,6.82758621 L18,6.82758621 L18,8.34482759 Z"></path>
</svg>
