<svg xmlns="http://www.w3.org/2000/svg" width="24" height="23" viewBox="0 0 24 23">
  <g id="fillActive" fill="#82869E">
    <path d="M23.25,6.13333333 L21,6.13333333 L21,14.5666667 C21,15.4138333 20.32875,16.1 19.5,16.1 L11.346,16.1 L7.917,19.1666667 L14.76,19.1666667 L19.81425,22.8566333 C20.04,23.0222333 20.3385,23.0475333 20.5935,22.9149 C20.84325,22.7838 21,22.5208333 21,22.2333333 L21,19.1666667 L23.25,19.1666667 C23.664,19.1666667 24,18.8232 24,18.4 L24,6.9 C24,6.4768 23.664,6.13333333 23.25,6.13333333 Z"></path>
    <path d="M18.75,0 L0.75,0 C0.33525,0 0,0.3427 0,0.766666667 L0,13.8 C0,14.2239667 0.33525,14.5666667 0.75,14.5666667 L3.75,14.5666667 L3.75,19.1666667 C3.75,19.4679667 3.92175,19.7401333 4.19025,19.8643333 C4.4535,19.9877667 4.77,19.9433 4.9935,19.7439667 L10.782,14.5666667 L18.75,14.5666667 C19.16475,14.5666667 19.5,14.2239667 19.5,13.8 L19.5,0.766666667 C19.5,0.3427 19.16475,0 18.75,0 Z"></path>
  </g>
</svg>
