<svg xmlns="http://www.w3.org/2000/svg" width="24" height="24" viewBox="0 0 24 24">
  <path id="fillActive" fill="#82869E" d="M12,0 C5.439,0 0.12075,4.97325 0.12075,11.10825 C0.12075,14.598 1.842,17.712 4.53375,19.749 L4.53375,24 L8.5875,21.7515 C9.66825,22.05375 10.8135,22.2165 11.99925,22.2165 C18.56025,22.2165 23.8785,17.24325 23.8785,11.10825 C23.8785,4.97325 18.561,0 12,0 Z M13.251,14.89575 L10.179,11.70375 L4.26225,14.976 L10.749,8.09175 L13.82175,11.28375 L19.7385,8.0115 L13.251,14.89575 Z"></path>
</svg>
